%!PS-Adobe-3.0 EPSF-3.0
%%Creator: graphviz version 2.36.0 (20140111.2315)
%%Title: sturct
%%Pages: 1
%%BoundingBox: 36 36 854 291
%%EndComments
save
%%BeginProlog
/DotDict 200 dict def
DotDict begin

/setupLatin1 {
mark
/EncodingVector 256 array def
 EncodingVector 0

ISOLatin1Encoding 0 255 getinterval putinterval
EncodingVector 45 /hyphen put

% Set up ISO Latin 1 character encoding
/starnetISO {
        dup dup findfont dup length dict begin
        { 1 index /FID ne { def }{ pop pop } ifelse
        } forall
        /Encoding EncodingVector def
        currentdict end definefont
} def
/Times-Roman starnetISO def
/Times-Italic starnetISO def
/Times-Bold starnetISO def
/Times-BoldItalic starnetISO def
/Helvetica starnetISO def
/Helvetica-Oblique starnetISO def
/Helvetica-Bold starnetISO def
/Helvetica-BoldOblique starnetISO def
/Courier starnetISO def
/Courier-Oblique starnetISO def
/Courier-Bold starnetISO def
/Courier-BoldOblique starnetISO def
cleartomark
} bind def

%%BeginResource: procset graphviz 0 0
/coord-font-family /Times-Roman def
/default-font-family /Times-Roman def
/coordfont coord-font-family findfont 8 scalefont def

/InvScaleFactor 1.0 def
/set_scale {
       dup 1 exch div /InvScaleFactor exch def
       scale
} bind def

% styles
/solid { [] 0 setdash } bind def
/dashed { [9 InvScaleFactor mul dup ] 0 setdash } bind def
/dotted { [1 InvScaleFactor mul 6 InvScaleFactor mul] 0 setdash } bind def
/invis {/fill {newpath} def /stroke {newpath} def /show {pop newpath} def} bind def
/bold { 2 setlinewidth } bind def
/filled { } bind def
/unfilled { } bind def
/rounded { } bind def
/diagonals { } bind def
/tapered { } bind def

% hooks for setting color 
/nodecolor { sethsbcolor } bind def
/edgecolor { sethsbcolor } bind def
/graphcolor { sethsbcolor } bind def
/nopcolor {pop pop pop} bind def

/beginpage {	% i j npages
	/npages exch def
	/j exch def
	/i exch def
	/str 10 string def
	npages 1 gt {
		gsave
			coordfont setfont
			0 0 moveto
			(\() show i str cvs show (,) show j str cvs show (\)) show
		grestore
	} if
} bind def

/set_font {
	findfont exch
	scalefont setfont
} def

% draw text fitted to its expected width
/alignedtext {			% width text
	/text exch def
	/width exch def
	gsave
		width 0 gt {
			[] 0 setdash
			text stringwidth pop width exch sub text length div 0 text ashow
		} if
	grestore
} def

/boxprim {				% xcorner ycorner xsize ysize
		4 2 roll
		moveto
		2 copy
		exch 0 rlineto
		0 exch rlineto
		pop neg 0 rlineto
		closepath
} bind def

/ellipse_path {
	/ry exch def
	/rx exch def
	/y exch def
	/x exch def
	matrix currentmatrix
	newpath
	x y translate
	rx ry scale
	0 0 1 0 360 arc
	setmatrix
} bind def

/endpage { showpage } bind def
/showpage { } def

/layercolorseq
	[	% layer color sequence - darkest to lightest
		[0 0 0]
		[.2 .8 .8]
		[.4 .8 .8]
		[.6 .8 .8]
		[.8 .8 .8]
	]
def

/layerlen layercolorseq length def

/setlayer {/maxlayer exch def /curlayer exch def
	layercolorseq curlayer 1 sub layerlen mod get
	aload pop sethsbcolor
	/nodecolor {nopcolor} def
	/edgecolor {nopcolor} def
	/graphcolor {nopcolor} def
} bind def

/onlayer { curlayer ne {invis} if } def

/onlayers {
	/myupper exch def
	/mylower exch def
	curlayer mylower lt
	curlayer myupper gt
	or
	{invis} if
} def

/curlayer 0 def

%%EndResource
%%EndProlog
%%BeginSetup
14 default-font-family set_font
1 setmiterlimit
% /arrowlength 10 def
% /arrowwidth 5 def

% make sure pdfmark is harmless for PS-interpreters other than Distiller
/pdfmark where {pop} {userdict /pdfmark /cleartomark load put} ifelse
% make '<<' and '>>' safe on PS Level 1 devices
/languagelevel where {pop languagelevel}{1} ifelse
2 lt {
    userdict (<<) cvn ([) cvn load put
    userdict (>>) cvn ([) cvn load put
} if

%%EndSetup
setupLatin1
%%Page: 1 1
%%PageBoundingBox: 36 36 854 291
%%PageOrientation: Portrait
0 0 1 beginpage
gsave
36 36 818 255 boxprim clip newpath
1 1 set_scale 0 rotate 40 40 translate
% client
gsave
1 setlinewidth
0 0 0 nodecolor
newpath .5 98.5 moveto
.5 159.5 lineto
179.5 159.5 lineto
179.5 98.5 lineto
closepath stroke
0 0 0 nodecolor
14 /Times-Roman set_font
65.5 144.3 moveto 49 (client.jar) alignedtext
1 setlinewidth
0 0 0 nodecolor
newpath .5 136.5 moveto
179.5 136.5 lineto
stroke
0 0 0 nodecolor
14 /Times-Roman set_font
8.5 121.3 moveto 163 (org.dynamo.casestudy.jasper.) alignedtext
0 0 0 nodecolor
14 /Times-Roman set_font
48.5 106.3 moveto 83 (JFreeChartApp) alignedtext
grestore
% jasper
gsave
1 setlinewidth
0 0 0 nodecolor
newpath .5 .5 moveto
.5 61.5 lineto
179.5 61.5 lineto
179.5 .5 lineto
closepath stroke
0 0 0 nodecolor
14 /Times-Roman set_font
29.5 46.3 moveto 121 (jasperreports-1.1.0.jar) alignedtext
1 setlinewidth
0 0 0 nodecolor
newpath .5 38.5 moveto
179.5 38.5 lineto
stroke
0 0 0 nodecolor
14 /Times-Roman set_font
8.5 23.3 moveto 163 (net.sf.jasperreports.charts.fill.) alignedtext
0 0 0 nodecolor
14 /Times-Roman set_font
22 8.3 moveto 136 (JRFillTimeSeriesDataset) alignedtext
grestore
% client->jasper
gsave
1 setlinewidth
0 0 0 edgecolor
newpath 90 98.47 moveto
90 89.55 90 80.62 90 71.7 curveto
stroke
0 0 0 edgecolor
newpath 93.5 71.62 moveto
90 61.63 lineto
86.5 71.63 lineto
closepath fill
1 setlinewidth
solid
0 0 0 edgecolor
newpath 93.5 71.62 moveto
90 61.63 lineto
86.5 71.63 lineto
closepath stroke
grestore
% jchart
gsave
1 setlinewidth
0 0 0 nodecolor
newpath 430 43 moveto
430 127 lineto
810 127 lineto
810 43 lineto
closepath stroke
0 0 0 nodecolor
14 /Times-Roman set_font
565.5 111.8 moveto 109 (jfreechart-1.0.12.jar) alignedtext
1 setlinewidth
0 0 0 nodecolor
newpath 430 104 moveto
810 104 lineto
stroke
0 0 0 nodecolor
14 /Times-Roman set_font
536 88.8 moveto 168 (org.jfree.data.time.TimeSeries) alignedtext
1 setlinewidth
0 0 0 nodecolor
newpath 430 81 moveto
810 81 lineto
stroke
0 0 0 nodecolor
14 /Times-Roman set_font
503 65.8 moveto 234 (+TimeSeries\(java.lang.Comparable name\)) alignedtext
0 0 0 nodecolor
14 /Times-Roman set_font
438 50.8 moveto 364 (+TimeSeries\(java.lang.Comparable name, Class timePeriodClass\)) alignedtext
grestore
% client->jchart
gsave
1 setlinewidth
0 0 0 edgecolor
newpath 179.67 121.61 moveto
245.23 116.15 337.11 108.49 419.9 101.59 curveto
stroke
0 0 0 edgecolor
newpath 420.28 105.07 moveto
429.95 100.75 lineto
419.7 98.1 lineto
closepath fill
1 setlinewidth
solid
0 0 0 edgecolor
newpath 420.28 105.07 moveto
429.95 100.75 lineto
419.7 98.1 lineto
closepath stroke
0 0 0 edgecolor
14 /Times-Roman set_font
247.5 137.8 moveto 115 (String title = 'Series';) alignedtext
0 0 0 edgecolor
14 /Times-Roman set_font
198 122.8 moveto 214 ( TimeSeries s = new TimeSeries\(title\);) alignedtext
grestore
% jasper->jchart
gsave
1 setlinewidth
0 0 0 edgecolor
newpath 179.67 40.07 moveto
245.23 46.77 337.11 56.17 419.9 64.64 curveto
stroke
0 0 0 edgecolor
newpath 419.65 68.13 moveto
429.95 65.67 lineto
420.36 61.17 lineto
closepath fill
1 setlinewidth
solid
0 0 0 edgecolor
newpath 419.65 68.13 moveto
429.95 65.67 lineto
420.36 61.17 lineto
closepath stroke
0 0 0 edgecolor
14 /Times-Roman set_font
256.5 81.8 moveto 97 ( new TimeSeries\() alignedtext
0 0 0 edgecolor
14 /Times-Roman set_font
207 66.8 moveto 196 (seriesName.toString\(\), timePeriod\);) alignedtext
grestore
% jchart_old
gsave
1 setlinewidth
dashed
0 0 0 nodecolor
newpath 447 163 moveto
447 247 lineto
793 247 lineto
793 163 lineto
closepath stroke
0 0 0 nodecolor
14 /Times-Roman set_font
568.5 231.8 moveto 103 (jfreechart-1.0.0.jar) alignedtext
1 setlinewidth
dashed
0 0 0 nodecolor
newpath 447 224 moveto
793 224 lineto
stroke
0 0 0 nodecolor
14 /Times-Roman set_font
536 208.8 moveto 168 (org.jfree.data.time.TimeSeries) alignedtext
1 setlinewidth
dashed
0 0 0 nodecolor
newpath 447 201 moveto
793 201 lineto
stroke
0 0 0 nodecolor
14 /Times-Roman set_font
520 185.8 moveto 200 (+TimeSeries\(java.lang.String name\)) alignedtext
0 0 0 nodecolor
14 /Times-Roman set_font
455 170.8 moveto 330 (+TimeSeries\(java.lang.String name, Class timePeriodClass\)) alignedtext
grestore
% jchart_old->jchart
gsave
1 setlinewidth
dashed
0 0 0 edgecolor
newpath 620 162.67 moveto
620 154.51 620 145.88 620 137.45 curveto
stroke
0 0 0 edgecolor
newpath 623.5 137.31 moveto
620 127.31 lineto
616.5 137.31 lineto
closepath fill
1 setlinewidth
solid
0 0 0 edgecolor
newpath 623.5 137.31 moveto
620 127.31 lineto
616.5 137.31 lineto
closepath stroke
0 0 0 edgecolor
14 /Times-Roman set_font
591 141.05 moveto 37 (update) alignedtext
grestore
endpage
showpage
grestore
%%PageTrailer
%%EndPage: 1
%%Trailer
end
restore
%%EOF
