digraph sturct {
rankdir=LR;

int -> double [label = "p"]

double -> Double [label="b"]
Double -> double [label="u"]
Double -> Number [label="r"]

int -> Integer [label="b"]
Integer -> int [label="u"]

Integer -> Number [label="r"]
Number -> Object [label="r"]

ArrayList -> AbstractList [label="r"]
AbstractList -> AbstractCollection [label="r"]
AbstractCollection -> Collection [label="r"]
AbstractList -> List [label="r"]
List -> Collection [label="r"]
ArrayList -> List [label="r"]

ArrayList -> Serializable [label="r"]
Serialisable -> Object [label="r"]

Collection -> Object [label="r"]

{rank=same; AbstractCollection List}
{rank=same; AbstractList Serialisable}
{rank=same; double int}

}